{
	"logLevel": 1,
	"urlSettings": [],
	"hiddenSettings": {
		"protectAudio": true,
		"protectedAPIFeatures": true
	},
	"expandStatus": {
		"protectNavigator": true,
		"section_notifications": false,
		"protectAudio": true,
		"protectTextMetrics": false,
		"protectSVG": true
	},
	"displayHiddenSettings": true,
	"whiteList": "",
	"sessionWhiteList": "",
	"blackList": "",
	"blockMode": "fake",
	"protectedCanvasPart": "everything",
	"minFakeSize": 10,
	"maxFakeSize": 0,
	"rng": "persistent",
	"protectedAPIFeatures": {
		"readPixels @ canvas": false,
		"getParameter @ canvas": false,
		"getExtension @ canvas": false
	},
	"useCanvasCache": true,
	"ignoreFrequentColors": 3,
	"minColors": 3,
	"fakeAlphaChannel": false,
	"webGLVendor": "",
	"webGLRenderer": "",
	"webGLUnmaskedVendor": "",
	"webGLUnmaskedRenderer": "",
	"persistentRndStorage": "",
	"persistentIncognitoRndStorage": "",
	"storePersistentRnd": false,
	"persistentRndClearIntervalValue": 0,
	"persistentRndClearIntervalUnit": "days",
	"lastPersistentRndClearing": 1646493727258,
	"sharePersistentRndBetweenDomains": false,
	"askOnlyOnce": "individual",
	"askDenyMode": "block",
	"showCanvasWhileAsking": true,
	"showNotifications": false,
	"highlightPageAction": "none",
	"highlightBrowserAction": "color",
	"displayBadge": false,
	"storeNotificationData": false,
	"storeImageForInspection": false,
	"ignoreList": "",
	"ignoredAPIs": {},
	"showCallingFile": false,
	"showCompleteCallingStack": false,
	"enableStackList": false,
	"stackList": "",
	"protectAudio": false,
	"audioFakeRate": "100",
	"audioNoiseLevel": "minimal",
	"useAudioCache": true,
	"audioUseFixedIndices": true,
	"audioFixedIndices": "14",
	"historyLengthThreshold": 2,
	"protectWindow": false,
	"allowWindowNameInFrames": false,
	"protectDOMRect": true,
	"domRectIntegerFactor": 4,
	"protectSVG": true,
	"protectTextMetrics": true,
	"blockDataURLs": true,
	"protectNavigator": true,
	"navigatorDetails": {
		"osPreset": "Linux",
		"windowManager": "X11",
		"platform": "Linux x86_64",
		"platformDetails": "X11; Linux x86_64",
		"oscpu": "{platform}",
		"browserPreset": "Firefox",
		"firefoxVersion": "{real Firefox version}",
		"appVersion": "5.0 ({windowManager})",
		"buildID": "20181001000000",
		"productSub": "20100101",
		"userAgent": "Mozilla/5.0 ({platformDetails}; rv:{firefoxVersion}) Gecko/20100101 Firefox/{firefoxVersion}"
	},
	"protectScreen": true,
	"screenSize": "",
	"fakeMinimalScreenSize": true,
	"displayAdvancedSettings": true,
	"displayDescriptions": true,
	"theme": "auto",
	"dontShowOptionsOnUpdate": false,
	"disruptSessionOnUpdate": false,
	"updatePending": false,
	"isStillDefault": false,
	"storageVersion": 1
}