{
    "_comment": "Releases from https://ftp.mozilla.org/pub/firefox/releases/ are in general not affected by dltoken scandal.",
    "_comment": "https://addons.mozilla.org/en-US/firefox/addon/enterprise-policy-generator/",
  "policies": {
    "DisableFirefoxStudies": true,
    "DisableTelemetry": true
  }
}
